<?xml version="1.0" encoding="utf-8"?>
<!-- Generator: Adobe Illustrator 23.0.2, SVG Export Plug-In . SVG Version: 6.00 Build 0)  -->
<svg version="1.1" id="Layer_1" xmlns="http://www.w3.org/2000/svg" xmlns:xlink="http://www.w3.org/1999/xlink" x="0px" y="0px"
	 viewBox="0 0 16.7 93.8" style="enable-background:new 0 0 16.7 93.8;" xml:space="preserve">
<style type="text/css">
	.st0{fill:#464646;}
	.st1{fill:#EEEEEE;}
</style>
<g>
	<g>
		<g>
			<path class="st0" d="M13.9,84.2L2.8,83.9c0,0,3.6-70.8,4-75C7.1,4.6,7.8,0,8.5,0c0.7,0,1.8,4.3,2.1,8.9
				C10.9,13.5,13.9,84.2,13.9,84.2z"/>
			<path class="st0" d="M16.7,85.5c0,4.6-3.7,8.4-8.4,8.4S0,90.1,0,85.5c0-4.6,3.7-8.4,8.4-8.4S16.7,80.9,16.7,85.5z"/>
			<circle class="st1" cx="8.4" cy="85.5" r="2.7"/>
		</g>
	</g>
</g>
</svg>
